109.9425587467363,562.943864229765,7660,400.438,159.0927296994464,70.10382432690355,0.8976801888081938,98.75735371440118
167.4275639734032,1802.075156155551,4963,352.4,116.4803106789391,60.75958033162932,0.8531720449781975,79.49269061065056
1084.604511278196,770.3567251461989,5985,498.792,138.5757531229986,63.02392802387795,0.8905947956073871,87.29455123454126
1113.008062603747,1690.945458857007,8434,333.414,122.6187145873593,87.6659925541741,0.6991777310489427,103.6267451978318
1118.922210414453,1456.977258235919,4705,248.264,84.66050898202003,71.0491512630327,0.543785505412592,77.39891509561966
1322.808823529412,1446.844117647059,5780,337.533,122.0364963577489,61.37644196461744,0.8643241570056122,85.78650574868544
1545.063690698543,1191.83787822189,5354,516.0079999999999,125.7950896195106,75.61749314007896,0.7991614712398447,82.5646687301055
1582.263007105203,1081.887691955077,8726,460.7569999999999,133.0172040641975,95.68794634028312,0.6946320772244703,105.405352176059
2182.272506596306,1693.40654353562,9475,753.6469999999999,368.4629569053337,35.47850624322706,0.9953535300465294,109.8359899412104
